Chapter 5 Importing | Data Wrangling and Analysis with R
…
5.4 check data consistency

5.4.1 filter() - rows/observations with matching conditions

print(dogdemography
%>% filter(.,adultDogsOwned+puppiesOwned == numDogsOwned)
%>% select(householdID,adultDogsOwned,puppiesOwned,numDogsOwned))

## # A tibble: 1,207 x 4
##    householdID adultDogsOwned puppiesOwned numDogsOwned
##    <chr>                <dbl>        <dbl>        <dbl>
##  1 13-172-2                 0            0            0
##  2 2-87-7                   0            0            0
##  3 49-1-1                   0            0            0
##  4 13-224-3                 1            0            1
##  5 2-109-5                  0            0            0
##  6 67-9-2                   0            0            0
##  7 49-256-2                 0            0            0
##  8 2-155-4                  0            0            0
##  9 49-256-3                 0            0            0
## 10 13-8-9                   0            0            0
## # … with 1,197 more rows
…
If we had data like the Calves follow-up with infectious status data, we would want to break it into

A table at the level of calves (with values/characteristics of calves that don’t change)

A table at the level of follow-up events and corresponding variable measurements

This process leads to improved clarity, and improved cleaning

5.15 Making relational tables

# calves_init <- read_csv("Data/ideal1.csv")
calves_init

## # A tibble: 30 x 6
##    CalfID      CalfSex sublocation CADOB      ReasonsLoss RecruitWeight
##    <chr>         <dbl> <chr>       <chr>            <dbl>         <dbl>
##  1 CA010110028       1 East Siboti 31/07/2009           7          19  
##  2 CA010210036       2 Kidera      12/3/2008            7          15  
##  3 CA010210038       1 Kidera      18/04/2008          NA          20  
##  4 CA010210041       1 Kidera      27/06/2008          NA          16.5
##  5 CA010310062       2 Kokare      18/11/2007          NA          14  
##  6 CA010310064       1 Kokare      3/1/2008             7          16.5
##  7 CA020510127       2 Kamunuoit   24/04/2008          NA          16  
##  8 CA020610151       1 Karisa      3/11/2007           NA          19  
##  9 CA020610152       1 Karisa      4/10/2007           NA          23  
## 10 CA030810223       1 Igero       16/08/2008          NA          29  
## # … with 20 more rows

5.16 Making relational tables

#calves_follow1 <- calves_follow %>% 
  #gather(infection, status, Theileria.spp.:Q.Strongyle.eggs) %>%
  #select(-ManualPCV) %>%
  #arrange(CalfID, VisitDate, status)
calves_follow1

## # A tibble: 1,080 x 6
##    VisitID   CalfID      VisitDate  Weight infection        status
##    <chr>     <chr>       <chr>       <dbl> <chr>             <dbl>
##  1 VRC010028 CA010110028 3/8/2009       19 Theileria.spp.        0
##  2 VRC010028 CA010110028 3/8/2009       19 ELISA_mutans         NA
##  3 VRC010028 CA010110028 3/8/2009       19 ELISA_parva          NA
##  4 VRC010028 CA010110028 3/8/2009       19 Q.Strongyle.eggs     NA
##  5 VRC010036 CA010210036 18/03/2008     15 Theileria.spp.        0
##  6 VRC010036 CA010210036 18/03/2008     15 ELISA_mutans          0
##  7 VRC010036 CA010210036 18/03/2008     15 ELISA_parva           0
##  8 VRC010036 CA010210036 18/03/2008     15 Q.Strongyle.eggs     NA
##  9 VRC160036 CA010210036 2/7/2008       34 Theileria.spp.        0
## 10 VRC160036 CA010210036 2/7/2008       34 ELISA_mutans          0
## # … with 1,070 more rows

5.17 Making relational tables

calves_all <- calves_init %>% left_join(calves_follow1, by="CalfID")
calves_all

## # A tibble: 1,080 x 11
##    CalfID  CalfSex sublocation CADOB ReasonsLoss RecruitWeight VisitID VisitDate
##    <chr>     <dbl> <chr>       <chr>       <dbl>         <dbl> <chr>   <chr>    
##  1 CA0101…       1 East Siboti 31/0…           7            19 VRC010… 3/8/2009 
##  2 CA0101…       1 East Siboti 31/0…           7            19 VRC010… 3/8/2009 
##  3 CA0101…       1 East Siboti 31/0…           7            19 VRC010… 3/8/2009 
##  4 CA0101…       1 East Siboti 31/0…           7            19 VRC010… 3/8/2009 
##  5 CA0102…       2 Kidera      12/3…           7            15 VRC010… 18/03/20…
##  6 CA0102…       2 Kidera      12/3…           7            15 VRC010… 18/03/20…
##  7 CA0102…       2 Kidera      12/3…           7            15 VRC010… 18/03/20…
##  8 CA0102…       2 Kidera      12/3…           7            15 VRC010… 18/03/20…
##  9 CA0102…       2 Kidera      12/3…           7            15 VRC160… 2/7/2008 
## 10 CA0102…       2 Kidera      12/3…           7            15 VRC160… 2/7/2008 
## # … with 1,070 more rows, and 3 more variables: Weight <dbl>, infection <chr>,
## #   status <dbl>

5.18 Calves follow-up data

print(calves_all
    %>% group_by(CalfID, VisitID, status)
    %>% summarize(count=n()) )

## `summarise()` has grouped output by 'CalfID', 'VisitID'. You can override using the `.groups` argument.

## # A tibble: 705 x 4
## # Groups:   CalfID, VisitID [270]
##    CalfID      VisitID   status count
##    <chr>       <chr>      <dbl> <int>
##  1 CA010110028 VRC010028      0     1
##  2 CA010110028 VRC010028     NA     3
##  3 CA010210036 VRC010036      0     3
##  4 CA010210036 VRC010036     NA     1
##  5 CA010210036 VRC060036      0     3
##  6 CA010210036 VRC060036    250     1
##  7 CA010210036 VRC110036      0     3
##  8 CA010210036 VRC110036   1250     1
##  9 CA010210036 VRC160036      0     3
## 10 CA010210036 VRC160036   2300     1
## # … with 695 more rows
…
